1 0.34103260869565216 0.520579268292683 0.38858695652173914 0.16615853658536586
3 0.07608695652173914 0.2682926829268293 0.14673913043478262 0.3932926829268293
5 0.7472826086956522 0.24923780487804878 0.4891304347826087 0.16615853658536586
2 0.5625 0.1676829268292683 0.30978260869565216 0.09451219512195122