3 0.78125 0.5266768292682927 0.4375 0.09298780487804878
5 0.5163043478260869 0.5739329268292683 0.6086956521739131 0.18445121951219512
1 0.8899456521739131 0.6288109756097561 0.22554347826086957 0.12652439024390244
0 0.8668478260869565 0.9344512195121951 0.2608695652173913 0.125