1 0.6331521739130435 0.36585365853658536 0.5434782608695652 0.16158536585365854
3 0.23369565217391305 0.45503048780487804 0.45652173913043476 0.2545731707317073
5 0.21467391304347827 0.11280487804878049 0.42934782608695654 0.18292682926829268
2 0.8777173913043478 0.3231707317073171 0.24456521739130435 0.16463414634146342