1 0.45516304347826086 0.5114329268292683 0.5190217391304348 0.1875
3 0.07744565217391304 0.2888719512195122 0.13858695652173914 0.41615853658536583
5 0.7065217391304348 0.22103658536585366 0.5489130434782609 0.13719512195121952
2 0.5203804347826086 0.15701219512195122 0.25271739130434784 0.07621951219512195