1 0.5774456521739131 0.44435975609756095 0.6114130434782609 0.14786585365853658
3 0.17255434782608695 0.3902439024390244 0.33967391304347827 0.28353658536585363
5 0.5978260869565217 0.1326219512195122 0.5489130434782609 0.17073170731707318
2 0.8491847826086957 0.2858231707317073 0.3016304347826087 0.19054878048780488