1 0.5869565217391305 0.4176829268292683 0.5597826086956522 0.14634146341463414
3 0.18478260869565216 0.4100609756097561 0.3641304347826087 0.2865853658536585
5 0.49592391304347827 0.13490853658536586 0.6114130434782609 0.16920731707317074
2 0.8546195652173914 0.2865853658536585 0.296195652173913 0.17682926829268292