1 0.19429347826086957 0.5304878048780488 0.25815217391304346 0.1524390243902439
3 0.16983695652173914 0.18597560975609756 0.3342391304347826 0.2774390243902439
5 0.8192934782608695 0.40853658536585363 0.35054347826086957 0.1951219512195122
2 0.686141304347826 0.19969512195121952 0.5516304347826086 0.17073170731707318